<svg width="29" height="19" viewBox="0 0 29 19"  xmlns="http://www.w3.org/2000/svg">
  <g id="i-back" fill="none"  stroke="currentColor" stroke-width="2" stroke-linecap="round" stroke-linejoin="round">
    <path d="M9.42462 2L2 9.42462L9.42462 16.8492"/>
    <path d="M2.25 9.5H27.25"/>
  </g>

	<path id="icon-facebook" fill="currentColor" stroke="none" d="M17.83,0H1a1,1,0,0,0-1,1V17.88a1,1,0,0,0,1.05,1h9.05V11.6H7.61V8.75h2.46V6.65a3.44,3.44,0,0,1,3.67-3.78,18.28,18.28,0,0,1,2.2.12V5.54H14.43C13.24,5.54,13,6.1,13,6.93V8.75h2.82l-.37,2.85H13v7.32h4.81a1,1,0,0,0,1.05-1V1.06A1,1,0,0,0,17.83,0Z" transform="translate(0.21 -0.02)"/>

	<g id="icon-instagram" fill="currentColor" stroke="none" >
		<path d="M18.83,5.58a6.89,6.89,0,0,0-.44-2.3A4.65,4.65,0,0,0,17.3,1.61,4.64,4.64,0,0,0,15.62.52,6.63,6.63,0,0,0,13.33.08C12.32,0,12,0,9.43,0S6.54,0,5.53.07A7.14,7.14,0,0,0,3.24.51a4.5,4.5,0,0,0-1.68,1.1A4.65,4.65,0,0,0,.47,3.28,7.14,7.14,0,0,0,0,5.57C0,6.58,0,6.91,0,9.47s0,2.89.06,3.9a6.53,6.53,0,0,0,.44,2.29,4.6,4.6,0,0,0,1.09,1.68,4.6,4.6,0,0,0,1.67,1.09,6.94,6.94,0,0,0,2.3.44c1,.05,1.33.06,3.89.06s2.89,0,3.9-.06a6.89,6.89,0,0,0,2.3-.44,4.8,4.8,0,0,0,2.76-2.77,6.58,6.58,0,0,0,.44-2.29c.05-1,.06-1.33.06-3.9S18.87,6.58,18.83,5.58Zm-1.7,7.72a5.09,5.09,0,0,1-.33,1.75A3.14,3.14,0,0,1,15,16.85a5.29,5.29,0,0,1-1.76.32c-1,0-1.29.06-3.82.06s-2.82,0-3.82-.06a5.15,5.15,0,0,1-1.75-.32,2.82,2.82,0,0,1-1.09-.71,3,3,0,0,1-.7-1.08,5.22,5.22,0,0,1-.33-1.76c0-1-.05-1.3-.05-3.82s0-2.82.05-3.82a5.09,5.09,0,0,1,.33-1.75,2.82,2.82,0,0,1,.71-1.09,2.88,2.88,0,0,1,1.08-.7,5.16,5.16,0,0,1,1.76-.33c1,0,1.29-.06,3.82-.06s2.82,0,3.82.06A5.09,5.09,0,0,1,15,2.12,3,3,0,0,1,16.8,3.91a5.09,5.09,0,0,1,.33,1.75c0,1,.05,1.3.05,3.82S17.17,12.3,17.13,13.3Z" transform="translate(0.21 -0.02)"/>
		<path d="M9.43,4.62a4.86,4.86,0,1,0,4.86,4.85A4.86,4.86,0,0,0,9.43,4.62Zm0,8a3.15,3.15,0,1,1,3.15-3.15A3.15,3.15,0,0,1,9.43,12.62Z" transform="translate(0.21 -0.02)"/>
		<path d="M15.61,4.42a1.14,1.14,0,1,1-1.13-1.13A1.14,1.14,0,0,1,15.61,4.42Z" transform="translate(0.21 -0.02)"/>
	</g>

	<g id="icon-twitter" fill="currentColor" stroke="none" >
		<path d="M18.72,3.6a8,8,0,0,1-2.23.61,3.82,3.82,0,0,0,1.7-2.14A7.71,7.71,0,0,1,15.73,3,3.88,3.88,0,0,0,9,5.66a3.74,3.74,0,0,0,.09.89,11,11,0,0,1-8-4.06,3.83,3.83,0,0,0-.53,2A3.88,3.88,0,0,0,2.3,7.67,3.87,3.87,0,0,1,.55,7.2v0a3.89,3.89,0,0,0,3.11,3.81,3.75,3.75,0,0,1-1,.13,2.92,2.92,0,0,1-.73-.07,3.91,3.91,0,0,0,3.62,2.71A7.82,7.82,0,0,1,.72,15.47a7.15,7.15,0,0,1-.93-.05,10.92,10.92,0,0,0,6,1.74,11,11,0,0,0,11-11c0-.17,0-.34,0-.5A7.61,7.61,0,0,0,18.72,3.6Z" transform="translate(0.21 -0.02)"/>
	</g>

	<g id="icon-snapchat" fill="currentColor" stroke="none" >
		<path d="M18.36,13.85a5.5,5.5,0,0,1-3.72-3.12v0a.78.78,0,0,1-.09-.64c.14-.33.67-.5,1-.61l.28-.09a2.2,2.2,0,0,0,.75-.45.67.67,0,0,0,.23-.52.79.79,0,0,0-.6-.7,1.16,1.16,0,0,0-.42-.08.86.86,0,0,0-.38.08,2.11,2.11,0,0,1-.79.22.74.74,0,0,1-.26,0c0-.12,0-.24,0-.37v0a9.31,9.31,0,0,0-.25-3.83A5.15,5.15,0,0,0,13,2a4.88,4.88,0,0,0-1.39-.92A5.57,5.57,0,0,0,9.45.6H9.08a5.48,5.48,0,0,0-2.17.46A4.6,4.6,0,0,0,5.53,2,5.15,5.15,0,0,0,4.38,3.62a9.28,9.28,0,0,0-.25,3.82h0l0,.42a.7.7,0,0,1-.31.06A2,2,0,0,1,3,7.7a.71.71,0,0,0-.32-.07,1.17,1.17,0,0,0-.57.16.79.79,0,0,0-.4.51A.69.69,0,0,0,2,9a2.49,2.49,0,0,0,.7.4L3,9.46c.35.11.88.28,1,.61a.78.78,0,0,1-.09.64v0a6,6,0,0,1-1,1.48,5.42,5.42,0,0,1-1.15,1,4.31,4.31,0,0,1-1.62.63.45.45,0,0,0-.37.46.59.59,0,0,0,.05.19h0a1.16,1.16,0,0,0,.64.55,7.23,7.23,0,0,0,1.85.48,2.64,2.64,0,0,1,.11.41c0,.14.07.29.11.44a.49.49,0,0,0,.51.37,1.92,1.92,0,0,0,.44-.06,5.46,5.46,0,0,1,1-.11,4.34,4.34,0,0,1,.71.06,3.47,3.47,0,0,1,1.33.69,4.31,4.31,0,0,0,2.61,1h.23a4.37,4.37,0,0,0,2.62-1h0a3.34,3.34,0,0,1,1.33-.69,4.25,4.25,0,0,1,.71-.06,4.59,4.59,0,0,1,1,.11,2.83,2.83,0,0,0,.43,0h0a.48.48,0,0,0,.49-.36c0-.16.08-.3.11-.44a2.64,2.64,0,0,1,.11-.41A7.42,7.42,0,0,0,18,15.05a1.2,1.2,0,0,0,.64-.55.41.41,0,0,0,.05-.19A.45.45,0,0,0,18.36,13.85Z" transform="translate(0.21 -0.02)"/>
	</g>

	<path id="icon-tiktok" fill="currentColor" stroke="none" d="M17.77,4.75a4.76,4.76,0,0,1-2.87-1A4.75,4.75,0,0,1,13.09.91,5.27,5.27,0,0,1,13,0H9.91V13.07A2.78,2.78,0,0,1,8,15.72a2.71,2.71,0,0,1-1,.14,2.91,2.91,0,0,1-1.28-.39A2.83,2.83,0,0,1,4.3,13.11,2.8,2.8,0,0,1,8,10.42V7.29a5.18,5.18,0,0,0-.89-.07,5.91,5.91,0,0,0-4.44,2,5.81,5.81,0,0,0,.26,8,6.55,6.55,0,0,0,.56.49,5.92,5.92,0,0,0,3.62,1.22A6.44,6.44,0,0,0,8,18.86a5.94,5.94,0,0,0,3.3-1.65A5.76,5.76,0,0,0,13,13.1V6.2a7.68,7.68,0,0,0,1.73,1,7.8,7.8,0,0,0,3.05.61V4.75Z" transform="translate(0.21 -0.02)"/>

	<path id="icon-down" fill="none" stroke="currentColor" stroke-width="4" stroke-linecap="round" stroke-linejoin="round" d="M2 6L14.5 16L27 6"></path>

	</svg>